%YAML 1.1
%TAG !u! tag:unity3d.com,2011:
--- !u!1001 &2080637216346492556
PrefabInstance:
  m_ObjectHideFlags: 0
  serializedVersion: 2
  m_Modification:
    m_TransformParent: {fileID: 0}
    m_Modifications:
    - target: {fileID: 5056108725892029715, guid: 8033f1804c793184a8bd9f6df7af5d49,
        type: 3}
      propertyPath: m_Name
      value: Floor2x2Proxy Variant
      objectReference: {fileID: 0}
    - target: {fileID: 5056108725892029715, guid: 8033f1804c793184a8bd9f6df7af5d49,
        type: 3}
      propertyPath: m_Layer
      value: 8
      objectReference: {fileID: 0}
    - target: {fileID: 5850850974104456774, guid: 8033f1804c793184a8bd9f6df7af5d49,
        type: 3}
      propertyPath: m_Sprite
      value: 
      objectReference: {fileID: 21300000, guid: c883a1316cb85bd4c9db6b23e224fd39,
        type: 3}
    - target: {fileID: 5850850974104456774, guid: 8033f1804c793184a8bd9f6df7af5d49,
        type: 3}
      propertyPath: m_Materials.Array.data[0]
      value: 
      objectReference: {fileID: 2100000, guid: a97c105638bdf8b4a8650670310a4cd3, type: 2}
    - target: {fileID: 7862521279515831319, guid: 8033f1804c793184a8bd9f6df7af5d49,
        type: 3}
      propertyPath: m_SpriteTilingProperty.oldSize.x
      value: 2
      objectReference: {fileID: 0}
    - target: {fileID: 7862521279515831319, guid: 8033f1804c793184a8bd9f6df7af5d49,
        type: 3}
      propertyPath: m_SpriteTilingProperty.oldSize.y
      value: 2
      objectReference: {fileID: 0}
    - target: {fileID: 8249810154313820102, guid: 8033f1804c793184a8bd9f6df7af5d49,
        type: 3}
      propertyPath: m_LocalPosition.x
      value: 0
      objectReference: {fileID: 0}
    - target: {fileID: 8249810154313820102, guid: 8033f1804c793184a8bd9f6df7af5d49,
        type: 3}
      propertyPath: m_LocalPosition.y
      value: 0
      objectReference: {fileID: 0}
    - target: {fileID: 8249810154313820102, guid: 8033f1804c793184a8bd9f6df7af5d49,
        type: 3}
      propertyPath: m_LocalPosition.z
      value: 0
      objectReference: {fileID: 0}
    - target: {fileID: 8249810154313820102, guid: 8033f1804c793184a8bd9f6df7af5d49,
        type: 3}
      propertyPath: m_LocalRotation.x
      value: 0
      objectReference: {fileID: 0}
    - target: {fileID: 8249810154313820102, guid: 8033f1804c793184a8bd9f6df7af5d49,
        type: 3}
      propertyPath: m_LocalRotation.y
      value: 0
      objectReference: {fileID: 0}
    - target: {fileID: 8249810154313820102, guid: 8033f1804c793184a8bd9f6df7af5d49,
        type: 3}
      propertyPath: m_LocalRotation.z
      value: 0
      objectReference: {fileID: 0}
    - target: {fileID: 8249810154313820102, guid: 8033f1804c793184a8bd9f6df7af5d49,
        type: 3}
      propertyPath: m_LocalRotation.w
      value: 1
      objectReference: {fileID: 0}
    - target: {fileID: 8249810154313820102, guid: 8033f1804c793184a8bd9f6df7af5d49,
        type: 3}
      propertyPath: m_RootOrder
      value: 0
      objectReference: {fileID: 0}
    - target: {fileID: 8249810154313820102, guid: 8033f1804c793184a8bd9f6df7af5d49,
        type: 3}
      propertyPath: m_LocalEulerAnglesHint.x
      value: 0
      objectReference: {fileID: 0}
    - target: {fileID: 8249810154313820102, guid: 8033f1804c793184a8bd9f6df7af5d49,
        type: 3}
      propertyPath: m_LocalEulerAnglesHint.y
      value: 0
      objectReference: {fileID: 0}
    - target: {fileID: 8249810154313820102, guid: 8033f1804c793184a8bd9f6df7af5d49,
        type: 3}
      propertyPath: m_LocalEulerAnglesHint.z
      value: 0
      objectReference: {fileID: 0}
    m_RemovedComponents: []
  m_SourcePrefab: {fileID: 100100000, guid: 8033f1804c793184a8bd9f6df7af5d49, type: 3}
